f0f1f2f3f4f5f-1f0f1f2A3B4C5e-1
f0f1f2A3B4C5e-1
f0f1f2A3B4C5e-1
f0f1f2A3B4C5e-1
f0f1f2A3B4C5e-1


f0f1f2f3f4f5f-1
f0f1f2A3B4C5e-1
f0f1f2A3B4C5e-1
f0f1f2A3B4C5e-1
f0f1f2A3B4C5e-1
f0f1f2A3B4C5e-1





f3f4f5f-1f0f1f2f3f4f5f-1f0f1f2f3f4f5f-1f0f1f2f3f4f5f-1f0f1f2f3f4

f0f1f2f3f4f5f-1
f0f1f2A3B4C5e-1

f0f1f2f3f4f5f-1
f0f1f2A3B4C5e-1